…
posture_data
```

    ## # A tibble: 1,219 x 9
    ##    sex     age age_group eop_size_mm eop_size eop_visibility_… eop_shape
    ##    <fct> <dbl> <ord>           <dbl> <ord>               <dbl>     <dbl>
    ##  1 male     18 18-30            14.8 10-15                   2         3
    ##  2 male     26 18-30            17.1 15-20                   2         3
    ##  3 fema…    22 18-30             0   0-5                     1        NA
    ##  4 male     20 18-30            23.9 20-25                   2         1
    ##  5 fema…    27 18-30             0   0-5                     0        NA
    ##  6 fema…    28 18-30             7.9 5-10                    2         2
    ##  7 male     21 18-30             9.4 5-10                    2         2
    ##  8 fema…    25 18-30             0   0-5                     0        NA
    ##  9 male     30 18-30            16.5 15-20                   2         2
    ## 10 male     27 18-30            22.8 20-25                   2         1
    ## # … with 1,209 more rows, and 2 more variables: fhp_size_mm <dbl>,
    ## #   fhp_category <ord>
…
